…
# Tidy weekly observations by gathering weekly observations
longstudy_df = longstudy_df %>% 
  gather(key = week, value = value, week_1:week_8) %>% 
  separate(week, into = c("remove1", "week"), sep = "_") %>% 
  select(subject_group, subject_ID, week, value) %>% 
  mutate(week = as.numeric(week))
  
longstudy_df
```

    ## # A tibble: 160 x 4
    ##    subject_group subject_ID  week value
    ##    <chr>         <chr>      <dbl> <dbl>
    ##  1 control       con_01         1  0.2 
    ##  2 control       con_02         1  1.13
    ##  3 control       con_03         1  1.77
    ##  4 control       con_04         1  1.04
    ##  5 control       con_05         1  0.47
    ##  6 control       con_06         1  2.37
    ##  7 control       con_07         1  0.03
    ##  8 control       con_08         1 -0.08
    ##  9 control       con_09         1  0.08
    ## 10 control       con_10         1  2.14
    ## # ... with 150 more rows
…
``` r
# Summarize total number of homicides by city
homicide_df %>% 
  group_by(city_state) %>% 
  summarize(total_homicides = n())
```

    ## # A tibble: 51 x 2
    ##    city_state      total_homicides
    ##    <chr>                     <int>
    ##  1 Albuquerque, NM             378
    ##  2 Atlanta, GA                 973
    ##  3 Baltimore, MD              2827
    ##  4 Baton Rouge, LA             424
    ##  5 Birmingham, AL              800
    ##  6 Boston, MA                  614
    ##  7 Buffalo, NY                 521
    ##  8 Charlotte, NC               687
    ##  9 Chicago, IL                5535
    ## 10 Cincinnati, OH              694
    ## # ... with 41 more rows

``` r
# Summarize total number of unsolved homicides by city
homicide_df %>% 
  filter(disposition %in% c("Closed without arrest", "Open/No arrest")) %>% 
  group_by(city_state) %>% 
  summarize(unsolved_homicides = n())
```

    ## # A tibble: 50 x 2
    ##    city_state      unsolved_homicides
    ##    <chr>                        <int>
    ##  1 Albuquerque, NM                146
    ##  2 Atlanta, GA                    373
    ##  3 Baltimore, MD                 1825
    ##  4 Baton Rouge, LA                196
    ##  5 Birmingham, AL                 347
    ##  6 Boston, MA                     310
    ##  7 Buffalo, NY                    319
    ##  8 Charlotte, NC                  206
    ##  9 Chicago, IL                   4073
    ## 10 Cincinnati, OH                 309
    ## # ... with 40 more rows
